{
	"additionalNodes": [],
	"additionalParameters": {
		"root": {
			"height": 88,
			"width": 180
		}
	},
	"inputs": [],
	"outputs": [],
	"properties": {
		"75YrE0etXr84fkPFYHHcJ2144SRHnzf2": {
			"height": 60,
			"title": "sequence",
			"width": 143,
			"x": 1286,
			"y": 170
		},
		"8zUuR4LunyKHHqFiYAg4vT96Amj7DeQE": {
			"height": 94,
			"title": "sstore - commPos",
			"width": 197,
			"x": 1414,
			"y": -244
		},
		"98G7BaG7pNh4RWLiNoBpULcYxtyRbejY": {
			"height": 94,
			"title": "store",
			"width": 311,
			"x": 1485,
			"y": 633
		},
		"F7wGrMoTb3vBs8VYptkMGAcuuqlrfi1X": {
			"height": 94,
			"title": "store - soldPos",
			"width": 177,
			"x": 1487,
			"y": 514
		},
		"G1vyueGZhxOexuOeDHsF3CMkmxHPWMfE": {
			"height": 60,
			"title": "sequence",
			"width": 143,
			"x": 2311,
			"y": 752
		},
		"IwRLhObJIxvEh3M7d0ws97fMyWGcM6NR": {
			"height": 90,
			"title": "Common.relativeMove",
			"width": 226,
			"x": 1263,
			"y": -2
		},
		"OSUVKCQrTaZMjhtDl4tJhM1UAAGOwAXc": {
			"height": 92,
			"title": "store - moveZ",
			"width": 329,
			"x": 1411,
			"y": -342
		},
		"TNab6XIp2OP7pYRbynTpfjvUZloWz8YL": {
			"height": 60,
			"title": "repeat - sensors",
			"width": 197,
			"x": 1042,
			"y": 170
		},
		"VZB8b2hwmTj7H0fldLgcZxB5Na3qqQC0": {
			"height": 92,
			"title": "store",
			"width": 184,
			"x": 2518,
			"y": 787
		},
		"Ve86rlrpghmOsD4k5eOJrTlgUxecwenH": {
			"height": 94,
			"title": "store - wind",
			"width": 159,
			"x": 1406,
			"y": -550
		},
		"VvQUW8sObjVfNfgL5GwzAYp9XulLVLZo": {
			"height": 70,
			"title": "parallel",
			"width": 202,
			"x": 780,
			"y": 166
		},
		"WqDfyorjYMEMPOEF2fgKKBxCUylBThHi": {
			"height": 54,
			"title": "success",
			"width": 132,
			"x": 2314,
			"y": 884
		},
		"Yn1Sm3T1eNUjVa6eUBUfDxp389FFGZqC": {
			"height": 70,
			"title": "parallel",
			"width": 202,
			"x": 775,
			"y": 5
		},
		"cjAh67KQIKY7oi8hxmEgohzT1YwLzzKR": {
			"height": 60,
			"title": "repeat - action",
			"width": 173,
			"x": 1074,
			"y": 920
		},
		"ckt0mnMssLsjZQmQNtaCg5yb1Ze1G38j": {
			"height": 92,
			"title": "store - wantedPos",
			"width": 197,
			"x": 1486,
			"y": 294
		},
		"ctBPo0zpPEzqh7EFbimqgExXe7UVDUHK": {
			"height": 60,
			"title": "repeat - sensors",
			"width": 186,
			"x": 1009,
			"y": -230
		},
		"cudvRNq6oaup4OTRyrcrhZ9DfxIh84yo": {
			"height": 90,
			"title": "luaCondition",
			"width": 218,
			"x": 1313,
			"y": 909
		},
		"e0E5pCUAuMXurniufXtMe81YCVNBP1U0": {
			"height": 90,
			"title": "luaCondition",
			"width": 712,
			"x": 1486,
			"y": 741
		},
		"kJJPkFbHt9DxyvEIWIkfaZiY5dZOCXed": {
			"height": 94,
			"title": "store - formationDef",
			"width": 269,
			"x": 1487,
			"y": 158
		},
		"kRSDCkeJ8abHj8KXuJ8dA0GKXhoL19wb": {
			"height": 92,
			"title": "store - moveX",
			"width": 329,
			"x": 1403,
			"y": -446
		},
		"lcWDy3KYjKQwGYhA30iPRMIbpCtCg4Rf": {
			"height": 54,
			"title": "success",
			"width": 132,
			"x": 1593,
			"y": 1031
		},
		"mdYbqzzCUev1M81i9VV509jCU28m17NS": {
			"height": 60,
			"title": "repeat - action",
			"width": 173,
			"x": 1049,
			"y": 9
		},
		"mhT9LwGwE9d8VED6bXLSGWndztuJhQ3H": {
			"height": 70,
			"title": "roleSplit",
			"width": 202,
			"x": 491,
			"y": 5
		},
		"ptaPWTNb20n9qKkl54rUqIdHnPwjYKgo": {
			"height": 94,
			"title": "store - wantedHeading",
			"width": 311,
			"x": 2525,
			"y": 541
		},
		"pwsQDaTifOTMMV00szutuzlrTSGT8eFW": {
			"height": 94,
			"title": "store - relativeFormation",
			"width": 733,
			"x": 2514,
			"y": 664
		},
		"quEesTQUn0Hv7yXxb3jyAhQXOicuUkTz": {
			"height": 92,
			"title": "store - lastHeading",
			"width": 201,
			"x": 1486,
			"y": 423
		},
		"tWz8CJdmqk3VyUvfsXrwDOqwJm2sNHRx": {
			"height": 112,
			"title": "formation.move",
			"width": 238,
			"x": 1595,
			"y": 902
		},
		"wUeMQhkJBhAD4Y3HQFrNUVNTBwZaoAtx": {
			"height": 60,
			"title": "sequence",
			"width": 143,
			"x": 1227,
			"y": -230
		}
	},
	"roles": [ {
		"categories": [ "nota_pivodovr_hw1.commander" ],
		"name": "commander"
	}, {
		"categories": [ "nota_pivodovr_hw1.soldiers" ],
		"name": "soldiers"
	} ],
	"root": {
		"children": [ {
			"children": [ {
				"children": [ {
					"children": [ {
						"children": [],
						"id": "Ve86rlrpghmOsD4k5eOJrTlgUxecwenH",
						"nodeType": "luaCommand",
						"parameters": [ {
							"name": "var",
							"value": "windData"
						}, {
							"name": "value",
							"value": "map.Wind()"
						}, {
							"name": "scriptName",
							"value": "store"
						} ],
						"scriptName": "store"
					}, {
						"children": [],
						"id": "kRSDCkeJ8abHj8KXuJ8dA0GKXhoL19wb",
						"nodeType": "luaCommand",
						"parameters": [ {
							"name": "var",
							"value": "moveX"
						}, {
							"name": "value",
							"value": "windData.dirX * windData.strength"
						}, {
							"name": "scriptName",
							"value": "store"
						} ],
						"scriptName": "store"
					}, {
						"children": [],
						"id": "OSUVKCQrTaZMjhtDl4tJhM1UAAGOwAXc",
						"nodeType": "luaCommand",
						"parameters": [ {
							"name": "var",
							"value": "moveZ"
						}, {
							"name": "value",
							"value": "windData.dirZ * windData.strength"
						}, {
							"name": "scriptName",
							"value": "store"
						} ],
						"scriptName": "store"
					}, {
						"children": [],
						"id": "8zUuR4LunyKHHqFiYAg4vT96Amj7DeQE",
						"nodeType": "luaCommand",
						"parameters": [ {
							"name": "var",
							"value": "commPos"
						}, {
							"name": "value",
							"value": "core.Position()"
						}, {
							"name": "scriptName",
							"value": "store"
						} ],
						"scriptName": "store"
					} ],
					"id": "wUeMQhkJBhAD4Y3HQFrNUVNTBwZaoAtx",
					"nodeType": "sequence",
					"parameters": []
				} ],
				"id": "ctBPo0zpPEzqh7EFbimqgExXe7UVDUHK",
				"nodeType": "repeat",
				"parameters": []
			}, {
				"children": [ {
					"children": [],
					"id": "IwRLhObJIxvEh3M7d0ws97fMyWGcM6NR",
					"nodeType": "luaCommand",
					"parameters": [ {
						"name": "dist",
						"value": "{x = moveX, z = moveZ}"
					}, {
						"name": "fight",
						"value": "false"
					}, {
						"name": "scriptName",
						"value": "Common.relativeMove"
					} ],
					"scriptName": "Common.relativeMove"
				} ],
				"id": "mdYbqzzCUev1M81i9VV509jCU28m17NS",
				"nodeType": "repeat",
				"parameters": []
			} ],
			"id": "Yn1Sm3T1eNUjVa6eUBUfDxp389FFGZqC",
			"nodeType": "parallel",
			"parameters": [ {
				"name": "mode",
				"value": "all-success"
			} ]
		}, {
			"children": [ {
				"children": [ {
					"children": [ {
						"children": [],
						"id": "kJJPkFbHt9DxyvEIWIkfaZiY5dZOCXed",
						"nodeType": "luaCommand",
						"parameters": [ {
							"name": "var",
							"value": "formationDef"
						}, {
							"name": "value",
							"value": "formation.Definition(\"swarm\")"
						}, {
							"name": "scriptName",
							"value": "store"
						} ],
						"scriptName": "store"
					}, {
						"children": [],
						"id": "ckt0mnMssLsjZQmQNtaCg5yb1Ze1G38j",
						"nodeType": "luaCommand",
						"parameters": [ {
							"name": "var",
							"value": "wantedPos"
						}, {
							"name": "value",
							"value": "commPos"
						}, {
							"name": "scriptName",
							"value": "store"
						} ],
						"scriptName": "store"
					}, {
						"children": [],
						"id": "quEesTQUn0Hv7yXxb3jyAhQXOicuUkTz",
						"nodeType": "luaCommand",
						"parameters": [ {
							"name": "var",
							"value": "lastHeading"
						}, {
							"name": "value",
							"value": "0"
						}, {
							"name": "scriptName",
							"value": "store"
						} ],
						"scriptName": "store"
					}, {
						"children": [],
						"id": "F7wGrMoTb3vBs8VYptkMGAcuuqlrfi1X",
						"nodeType": "luaCommand",
						"parameters": [ {
							"name": "var",
							"value": "soldPos"
						}, {
							"name": "value",
							"value": "core.Position()"
						}, {
							"name": "scriptName",
							"value": "store"
						} ],
						"scriptName": "store"
					}, {
						"children": [],
						"id": "98G7BaG7pNh4RWLiNoBpULcYxtyRbejY",
						"nodeType": "luaCommand",
						"parameters": [ {
							"name": "var",
							"value": "wantedHeading"
						}, {
							"name": "value",
							"value": "(wantedPos - soldPos):ToHeading()"
						}, {
							"name": "scriptName",
							"value": "store"
						} ],
						"scriptName": "store"
					}, {
						"children": [ {
							"children": [ {
								"children": [],
								"id": "ptaPWTNb20n9qKkl54rUqIdHnPwjYKgo",
								"nodeType": "luaCommand",
								"parameters": [ {
									"name": "var",
									"value": "wantedHeading"
								}, {
									"name": "value",
									"value": "(wantedPos - soldPos):ToHeading()"
								}, {
									"name": "scriptName",
									"value": "store"
								} ],
								"scriptName": "store"
							}, {
								"children": [],
								"id": "pwsQDaTifOTMMV00szutuzlrTSGT8eFW",
								"nodeType": "luaCommand",
								"parameters": [ {
									"name": "var",
									"value": "relativeFormation"
								}, {
									"name": "value",
									"value": "formation.StaticTransform(formationDef.positions, wantedHeading, nil, formationDef.defaults.spacing)"
								}, {
									"name": "scriptName",
									"value": "store"
								} ],
								"scriptName": "store"
							}, {
								"children": [],
								"id": "VZB8b2hwmTj7H0fldLgcZxB5Na3qqQC0",
								"nodeType": "luaCommand",
								"parameters": [ {
									"name": "var",
									"value": "lastHeading"
								}, {
									"name": "value",
									"value": "wantedHeading"
								}, {
									"name": "scriptName",
									"value": "store"
								} ],
								"scriptName": "store"
							} ],
							"id": "G1vyueGZhxOexuOeDHsF3CMkmxHPWMfE",
							"nodeType": "sequence",
							"parameters": []
						}, {
							"children": [],
							"id": "WqDfyorjYMEMPOEF2fgKKBxCUylBThHi",
							"nodeType": "success",
							"parameters": []
						} ],
						"id": "e0E5pCUAuMXurniufXtMe81YCVNBP1U0",
						"nodeType": "luaCondition",
						"parameters": [ {
							"name": "expression",
							"value": "(wantedHeading ~= nil) and ((relativeFormation == nil) or (math.abs(wantedHeading - lastHeading) > 30))"
						}, {
							"name": "repeat",
							"value": "true"
						} ]
					} ],
					"id": "75YrE0etXr84fkPFYHHcJ2144SRHnzf2",
					"nodeType": "sequence",
					"parameters": []
				} ],
				"id": "TNab6XIp2OP7pYRbynTpfjvUZloWz8YL",
				"nodeType": "repeat",
				"parameters": []
			}, {
				"children": [ {
					"children": [ {
						"children": [],
						"id": "tWz8CJdmqk3VyUvfsXrwDOqwJm2sNHRx",
						"nodeType": "luaCommand",
						"parameters": [ {
							"name": "position",
							"value": "wantedPos"
						}, {
							"name": "formation",
							"value": "relativeFormation"
						}, {
							"name": "fight",
							"value": "false"
						}, {
							"name": "scriptName",
							"value": "formation.move"
						} ],
						"scriptName": "formation.move"
					}, {
						"children": [],
						"id": "lcWDy3KYjKQwGYhA30iPRMIbpCtCg4Rf",
						"nodeType": "success",
						"parameters": []
					} ],
					"id": "cudvRNq6oaup4OTRyrcrhZ9DfxIh84yo",
					"nodeType": "luaCondition",
					"parameters": [ {
						"name": "expression",
						"value": "relativeFormation ~= nil"
					}, {
						"name": "repeat",
						"value": "true"
					} ]
				} ],
				"id": "cjAh67KQIKY7oi8hxmEgohzT1YwLzzKR",
				"nodeType": "repeat",
				"parameters": []
			} ],
			"id": "VvQUW8sObjVfNfgL5GwzAYp9XulLVLZo",
			"nodeType": "parallel",
			"parameters": [ {
				"name": "mode",
				"value": "all-success"
			} ]
		} ],
		"id": "mhT9LwGwE9d8VED6bXLSGWndztuJhQ3H",
		"nodeType": "roleSplit",
		"parameters": [ {
			"name": "mode",
			"value": "all-success"
		} ]
	}
}